-----BEGIN PGP SIGNATURE-----
Version: GnuPG v1.0.7 (GNU/Linux)

iQEVAwUAZ2BNu6V1vM4XN47MAQjEfwf9FHXXRkPWe3iU38Tjbx+ZKsmqfWKDr1Lc
/2VK8rrQWhqj0JhULwwvaCLUm6c+55ci3287luc2hWswQwg90HOglD+yNvLTClQ4
YNNlB6x+29xmH63nXv3+sYhi+1iB3Kx4auV3XnqAUJ8oWT/P2xx2J8X/dpR+qegB
4FtNxN2OsAJ1Bt4b3DiLSG8Yl5qZRu7tftEhXL22B2+g2PqlGgIeWwa6riKYSjCK
7K6ptXXuXQEvrMSZ1EXMVeFaKYt7CKsWdeeMkEgmPnaY7PSQXL1dHCSSidzPzPdq
azIb2lsg6Yd516bpaLKv98zhBA1Q2PrzaS6odGyJVQyGIgLaWDzlTQ==
=HEla
-----END PGP SIGNATURE-----
